Intro to R
…
The tidyverse comes with some built-in data loading functions that I recommend over the ones that are included in base R. The ones I use most commonly are read_csv and read_xlsx, which is actually in a separate package called readxl.

Both of these functions can load data either from a local data file or from something shared on the web. Let’s grab the dataset from the Open Refine lesson for Library Carpentries.

The read_csv() function does a few things automatically. It assumes that the first row of the dataset contained the column names. It can also test each column to try to guess the data type. Usually the tidyverse data reading functions do a great job of guessing data types, but you can also specify them manually if you need to. Here, I specified that Date is a date but all others are character variables.

Explore a dataset

lc_open_refine

# A tibble: 1,001 × 11
   Title        Authors DOI   URL   Date       Language Subjects ISSNs Publisher
   <chr>        <chr>   <chr> <chr> <date>     <chr>    <chr>    <chr> <chr>    
 1 The Fisher … Flavia… 10.3… http… 2015-01-11 English  Fisher … 1099… MDPI AG  
 2 Aflatoxin C… Naveed… 10.3… http… 2015-01-11 English  aflatox… 2077… MDPI AG  
 3 Metagenomic… Rafael… 10.3… http… 2015-01-11 English  PKS|NRP… 1422… MDPI AG  
 4 Synthesis a… Fabriz… 10.3… http… 2015-01-11 EN       lanthan… 2304… MDPI AG  
 5 Performance… Magali… 10.3… http… 2015-01-11 EN       snow mo… 2306… MDPI AG  
 6 Dihydrochal… Xiaoxi… 10.3… http… 2015-01-11 English  Malus c… 1420… MDPI AG  
 7 Ionic Liqui… Anton … 10.3… http… 2015-01-11 English  ionic l… 2073… MDPI AG  
 8 Characteriz… Weihon… 10.3… http… 2015-01-11 English  Coryneb… 1422… MDPI AG  
 9 Quaternific… Tosiak… 10.3… http… 2015-01-11 English  infinit… 2073… MDPI AG  
10 Imaging of … Christ… 10.3… http… 2015-01-11 <NA>     hepatoc… 2075… MDPI AG  
# ℹ 991 more rows
# ℹ 2 more variables: Citation <chr>, Licence <chr>
…
Step 1: Isolating groups of rows by a condition

filter(data_frame, some test for the rows)

How to test if values are null?

is.na(name_of_column)

Find the NA values in the DOI column

filter(lc_open_refine, is.na(DOI))

filter(lc_open_refine, is.na(DOI))

# A tibble: 23 × 11
   Title        Authors DOI   URL   Date       Language Subjects ISSNs Publisher
   <chr>        <chr>   <chr> <chr> <date>     <chr>    <chr>    <chr> <chr>    
 1 Primality T… Musha … <NA>  http… 2015-01-11 English  Primali… 2067… Aurel Vl…
 2 Some Famili… H. M. … <NA>  http… 2015-01-11 English  q-Serie… 2067… Aurel Vl…
 3 Zweier I-Co… A. Kha… <NA>  http… 2015-01-11 English  Ideal|f… 2067… Aurel Vl…
 4 Initial Mac… Basem … <NA>  http… 2015-01-11 English  Analyti… 2067… Aurel Vl…
 5 Measure of … E. A-i… <NA>  http… 2015-01-11 English  Sites|M… 2067… Aurel Vl…
 6 Katsaras’s … Sorin … <NA>  http… 2015-01-11 English  Fuzzy n… 2067… Aurel Vl…
 7 Some Pertur… S. S. … <NA>  http… 2015-01-11 English  Ostrows… 2067… Aurel Vl…
 8 Hadamard Pr… R. M. … <NA>  http… 2015-01-11 English  Harmoni… 2067… Aurel Vl…
 9 New Čebyšev… B. Mef… <NA>  http… 2015-01-11 English  Čebyšev… 2067… Aurel Vl…
10 A Mixed Int… Marija… <NA>  http… 2015-01-11 English  Restrai… 2067… Aurel Vl…
# ℹ 13 more rows
# ℹ 2 more variables: Citation <chr>, Licence <chr>

How do we get the opposite?

!is.na(name_of_column)

filter(lc_open_refine, !is.na(DOI))

filter(lc_open_refine, !is.na(DOI))

# A tibble: 978 × 11
   Title        Authors DOI   URL   Date       Language Subjects ISSNs Publisher
   <chr>        <chr>   <chr> <chr> <date>     <chr>    <chr>    <chr> <chr>    
 1 The Fisher … Flavia… 10.3… http… 2015-01-11 English  Fisher … 1099… MDPI AG  
 2 Aflatoxin C… Naveed… 10.3… http… 2015-01-11 English  aflatox… 2077… MDPI AG  
 3 Metagenomic… Rafael… 10.3… http… 2015-01-11 English  PKS|NRP… 1422… MDPI AG  
 4 Synthesis a… Fabriz… 10.3… http… 2015-01-11 EN       lanthan… 2304… MDPI AG  
 5 Performance… Magali… 10.3… http… 2015-01-11 EN       snow mo… 2306… MDPI AG  
 6 Dihydrochal… Xiaoxi… 10.3… http… 2015-01-11 English  Malus c… 1420… MDPI AG  
 7 Ionic Liqui… Anton … 10.3… http… 2015-01-11 English  ionic l… 2073… MDPI AG  
 8 Characteriz… Weihon… 10.3… http… 2015-01-11 English  Coryneb… 1422… MDPI AG  
 9 Quaternific… Tosiak… 10.3… http… 2015-01-11 English  infinit… 2073… MDPI AG  
10 Imaging of … Christ… 10.3… http… 2015-01-11 <NA>     hepatoc… 2075… MDPI AG  
# ℹ 968 more rows
# ℹ 2 more variables: Citation <chr>, Licence <chr>

Alternative: drop_na()

drop_na(lc_open_refine, DOI)

# A tibble: 978 × 11
   Title        Authors DOI   URL   Date       Language Subjects ISSNs Publisher
   <chr>        <chr>   <chr> <chr> <date>     <chr>    <chr>    <chr> <chr>    
 1 The Fisher … Flavia… 10.3… http… 2015-01-11 English  Fisher … 1099… MDPI AG  
 2 Aflatoxin C… Naveed… 10.3… http… 2015-01-11 English  aflatox… 2077… MDPI AG  
 3 Metagenomic… Rafael… 10.3… http… 2015-01-11 English  PKS|NRP… 1422… MDPI AG  
 4 Synthesis a… Fabriz… 10.3… http… 2015-01-11 EN       lanthan… 2304… MDPI AG  
 5 Performance… Magali… 10.3… http… 2015-01-11 EN       snow mo… 2306… MDPI AG  
 6 Dihydrochal… Xiaoxi… 10.3… http… 2015-01-11 English  Malus c… 1420… MDPI AG  
 7 Ionic Liqui… Anton … 10.3… http… 2015-01-11 English  ionic l… 2073… MDPI AG  
 8 Characteriz… Weihon… 10.3… http… 2015-01-11 English  Coryneb… 1422… MDPI AG  
 9 Quaternific… Tosiak… 10.3… http… 2015-01-11 English  infinit… 2073… MDPI AG  
10 Imaging of … Christ… 10.3… http… 2015-01-11 <NA>     hepatoc… 2075… MDPI AG  
# ℹ 968 more rows
# ℹ 2 more variables: Citation <chr>, Licence <chr>
…
ifelse(test, what to do if true, what to do if false)

ifelse(Language == "English", "EN", Language)

String replacement

str_replace(text, what to replace, what to use instead)

str_replace(Language, "English", "EN")

Back to mutate()

mutate(lc_open_refine, Language = ifelse(Language == "English", "EN", Language))

# A tibble: 1,001 × 11
   Title        Authors DOI   URL   Date       Language Subjects ISSNs Publisher
   <chr>        <chr>   <chr> <chr> <date>     <chr>    <chr>    <chr> <chr>    
 1 The Fisher … Flavia… 10.3… http… 2015-01-11 EN       Fisher … 1099… MDPI AG  
 2 Aflatoxin C… Naveed… 10.3… http… 2015-01-11 EN       aflatox… 2077… MDPI AG  
 3 Metagenomic… Rafael… 10.3… http… 2015-01-11 EN       PKS|NRP… 1422… MDPI AG  
 4 Synthesis a… Fabriz… 10.3… http… 2015-01-11 EN       lanthan… 2304… MDPI AG  
 5 Performance… Magali… 10.3… http… 2015-01-11 EN       snow mo… 2306… MDPI AG  
 6 Dihydrochal… Xiaoxi… 10.3… http… 2015-01-11 EN       Malus c… 1420… MDPI AG  
 7 Ionic Liqui… Anton … 10.3… http… 2015-01-11 EN       ionic l… 2073… MDPI AG  
 8 Characteriz… Weihon… 10.3… http… 2015-01-11 EN       Coryneb… 1422… MDPI AG  
 9 Quaternific… Tosiak… 10.3… http… 2015-01-11 EN       infinit… 2073… MDPI AG  
10 Imaging of … Christ… 10.3… http… 2015-01-11 <NA>     hepatoc… 2075… MDPI AG  
# ℹ 991 more rows
# ℹ 2 more variables: Citation <chr>, Licence <chr>

Alternative

mutate(lc_open_refine, Language = str_replace(Language, "English", "EN"))

# A tibble: 1,001 × 11
   Title        Authors DOI   URL   Date       Language Subjects ISSNs Publisher
   <chr>        <chr>   <chr> <chr> <date>     <chr>    <chr>    <chr> <chr>    
 1 The Fisher … Flavia… 10.3… http… 2015-01-11 EN       Fisher … 1099… MDPI AG  
 2 Aflatoxin C… Naveed… 10.3… http… 2015-01-11 EN       aflatox… 2077… MDPI AG  
 3 Metagenomic… Rafael… 10.3… http… 2015-01-11 EN       PKS|NRP… 1422… MDPI AG  
 4 Synthesis a… Fabriz… 10.3… http… 2015-01-11 EN       lanthan… 2304… MDPI AG  
 5 Performance… Magali… 10.3… http… 2015-01-11 EN       snow mo… 2306… MDPI AG  
 6 Dihydrochal… Xiaoxi… 10.3… http… 2015-01-11 EN       Malus c… 1420… MDPI AG  
 7 Ionic Liqui… Anton … 10.3… http… 2015-01-11 EN       ionic l… 2073… MDPI AG  
 8 Characteriz… Weihon… 10.3… http… 2015-01-11 EN       Coryneb… 1422… MDPI AG  
 9 Quaternific… Tosiak… 10.3… http… 2015-01-11 EN       infinit… 2073… MDPI AG  
10 Imaging of … Christ… 10.3… http… 2015-01-11 <NA>     hepatoc… 2075… MDPI AG  
# ℹ 991 more rows
# ℹ 2 more variables: Citation <chr>, Licence <chr>
…
What needs to be fixed?

MDPI  AG

should be

MDPI AG

Maybe just replace two spaces with one?

mutate(lc_open_refine, Publisher = str_replace(Publisher, "  ", " "))

# A tibble: 1,001 × 11
   Title        Authors DOI   URL   Date       Language Subjects ISSNs Publisher
   <chr>        <chr>   <chr> <chr> <date>     <chr>    <chr>    <chr> <chr>    
 1 The Fisher … Flavia… 10.3… http… 2015-01-11 English  Fisher … 1099… MDPI AG  
 2 Aflatoxin C… Naveed… 10.3… http… 2015-01-11 English  aflatox… 2077… MDPI AG  
 3 Metagenomic… Rafael… 10.3… http… 2015-01-11 English  PKS|NRP… 1422… MDPI AG  
 4 Synthesis a… Fabriz… 10.3… http… 2015-01-11 EN       lanthan… 2304… MDPI AG  
 5 Performance… Magali… 10.3… http… 2015-01-11 EN       snow mo… 2306… MDPI AG  
 6 Dihydrochal… Xiaoxi… 10.3… http… 2015-01-11 English  Malus c… 1420… MDPI AG  
 7 Ionic Liqui… Anton … 10.3… http… 2015-01-11 English  ionic l… 2073… MDPI AG  
 8 Characteriz… Weihon… 10.3… http… 2015-01-11 English  Coryneb… 1422… MDPI AG  
 9 Quaternific… Tosiak… 10.3… http… 2015-01-11 English  infinit… 2073… MDPI AG  
10 Imaging of … Christ… 10.3… http… 2015-01-11 <NA>     hepatoc… 2075… MDPI AG  
# ℹ 991 more rows
# ℹ 2 more variables: Citation <chr>, Licence <chr>
…
"a" %>% class()

[1] "character"

class() is a basic function that returns the class of a data element in R: class(). Inside the parentheses, you would normally type the variable name or the data element you want to find the class of. If you want to use the pipe, though, you could start with the data element and then pipe it to the class() function.

Those two statements are identical. When you use the pipe, whatever was on the left side of the pipe gets inserted into the parentheses of the function on the right.

Create a single chain of data transformations to remove null DOIs and fix the Language and Publisher columns

First, drop NAs in DOI

lc_open_refine %>% drop_na(DOI)

# A tibble: 978 × 11
   Title        Authors DOI   URL   Date       Language Subjects ISSNs Publisher
   <chr>        <chr>   <chr> <chr> <date>     <chr>    <chr>    <chr> <chr>    
 1 The Fisher … Flavia… 10.3… http… 2015-01-11 English  Fisher … 1099… MDPI AG  
 2 Aflatoxin C… Naveed… 10.3… http… 2015-01-11 English  aflatox… 2077… MDPI AG  
 3 Metagenomic… Rafael… 10.3… http… 2015-01-11 English  PKS|NRP… 1422… MDPI AG  
 4 Synthesis a… Fabriz… 10.3… http… 2015-01-11 EN       lanthan… 2304… MDPI AG  
 5 Performance… Magali… 10.3… http… 2015-01-11 EN       snow mo… 2306… MDPI AG  
 6 Dihydrochal… Xiaoxi… 10.3… http… 2015-01-11 English  Malus c… 1420… MDPI AG  
 7 Ionic Liqui… Anton … 10.3… http… 2015-01-11 English  ionic l… 2073… MDPI AG  
 8 Characteriz… Weihon… 10.3… http… 2015-01-11 English  Coryneb… 1422… MDPI AG  
 9 Quaternific… Tosiak… 10.3… http… 2015-01-11 English  infinit… 2073… MDPI AG  
10 Imaging of … Christ… 10.3… http… 2015-01-11 <NA>     hepatoc… 2075… MDPI AG  
# ℹ 968 more rows
# ℹ 2 more variables: Citation <chr>, Licence <chr>

Next, add another step to change “English” to “EN” in Language

lc_open_refine %>% drop_na(DOI) %>% mutate(Language = str_replace(Language, "English", "EN"))

# A tibble: 978 × 11
   Title        Authors DOI   URL   Date       Language Subjects ISSNs Publisher
   <chr>        <chr>   <chr> <chr> <date>     <chr>    <chr>    <chr> <chr>    
 1 The Fisher … Flavia… 10.3… http… 2015-01-11 EN       Fisher … 1099… MDPI AG  
 2 Aflatoxin C… Naveed… 10.3… http… 2015-01-11 EN       aflatox… 2077… MDPI AG  
 3 Metagenomic… Rafael… 10.3… http… 2015-01-11 EN       PKS|NRP… 1422… MDPI AG  
 4 Synthesis a… Fabriz… 10.3… http… 2015-01-11 EN       lanthan… 2304… MDPI AG  
 5 Performance… Magali… 10.3… http… 2015-01-11 EN       snow mo… 2306… MDPI AG  
 6 Dihydrochal… Xiaoxi… 10.3… http… 2015-01-11 EN       Malus c… 1420… MDPI AG  
 7 Ionic Liqui… Anton … 10.3… http… 2015-01-11 EN       ionic l… 2073… MDPI AG  
 8 Characteriz… Weihon… 10.3… http… 2015-01-11 EN       Coryneb… 1422… MDPI AG  
 9 Quaternific… Tosiak… 10.3… http… 2015-01-11 EN       infinit… 2073… MDPI AG  
10 Imaging of … Christ… 10.3… http… 2015-01-11 <NA>     hepatoc… 2075… MDPI AG  
# ℹ 968 more rows
# ℹ 2 more variables: Citation <chr>, Licence <chr>

To avoid long lines, you can start a new line after a pipe

lc_open_refine %>% 
  drop_na(DOI) %>% 
  mutate(Language = str_replace(Language, "English", "EN"))

# A tibble: 978 × 11
   Title        Authors DOI   URL   Date       Language Subjects ISSNs Publisher
   <chr>        <chr>   <chr> <chr> <date>     <chr>    <chr>    <chr> <chr>    
 1 The Fisher … Flavia… 10.3… http… 2015-01-11 EN       Fisher … 1099… MDPI AG  
 2 Aflatoxin C… Naveed… 10.3… http… 2015-01-11 EN       aflatox… 2077… MDPI AG  
 3 Metagenomic… Rafael… 10.3… http… 2015-01-11 EN       PKS|NRP… 1422… MDPI AG  
 4 Synthesis a… Fabriz… 10.3… http… 2015-01-11 EN       lanthan… 2304… MDPI AG  
 5 Performance… Magali… 10.3… http… 2015-01-11 EN       snow mo… 2306… MDPI AG  
 6 Dihydrochal… Xiaoxi… 10.3… http… 2015-01-11 EN       Malus c… 1420… MDPI AG  
 7 Ionic Liqui… Anton … 10.3… http… 2015-01-11 EN       ionic l… 2073… MDPI AG  
 8 Characteriz… Weihon… 10.3… http… 2015-01-11 EN       Coryneb… 1422… MDPI AG  
 9 Quaternific… Tosiak… 10.3… http… 2015-01-11 EN       infinit… 2073… MDPI AG  
10 Imaging of … Christ… 10.3… http… 2015-01-11 <NA>     hepatoc… 2075… MDPI AG  
# ℹ 968 more rows
# ℹ 2 more variables: Citation <chr>, Licence <chr>

Finally, fix the Publisher space problem

lc_open_refine %>% 
  drop_na(DOI) %>% 
  mutate(Language = str_replace(Language, "English", "EN")) %>%
  mutate(Publisher = str_replace(Publisher, "  ", " "))

# A tibble: 978 × 11
   Title        Authors DOI   URL   Date       Language Subjects ISSNs Publisher
   <chr>        <chr>   <chr> <chr> <date>     <chr>    <chr>    <chr> <chr>    
 1 The Fisher … Flavia… 10.3… http… 2015-01-11 EN       Fisher … 1099… MDPI AG  
 2 Aflatoxin C… Naveed… 10.3… http… 2015-01-11 EN       aflatox… 2077… MDPI AG  
 3 Metagenomic… Rafael… 10.3… http… 2015-01-11 EN       PKS|NRP… 1422… MDPI AG  
 4 Synthesis a… Fabriz… 10.3… http… 2015-01-11 EN       lanthan… 2304… MDPI AG  
 5 Performance… Magali… 10.3… http… 2015-01-11 EN       snow mo… 2306… MDPI AG  
 6 Dihydrochal… Xiaoxi… 10.3… http… 2015-01-11 EN       Malus c… 1420… MDPI AG  
 7 Ionic Liqui… Anton … 10.3… http… 2015-01-11 EN       ionic l… 2073… MDPI AG  
 8 Characteriz… Weihon… 10.3… http… 2015-01-11 EN       Coryneb… 1422… MDPI AG  
 9 Quaternific… Tosiak… 10.3… http… 2015-01-11 EN       infinit… 2073… MDPI AG  
10 Imaging of … Christ… 10.3… http… 2015-01-11 <NA>     hepatoc… 2075… MDPI AG  
# ℹ 968 more rows
# ℹ 2 more variables: Citation <chr>, Licence <chr>
…
